Info: Starting: Create block symbol file (.bsf)
Info: ip-generate --project-directory=/home/handy/skola/KYR/bakalarka/profinet-2015-06-12/profinet/hardware/fpga/profinet/altera_ink_switch --output-directory=/home/handy/skola/KYR/bakalarka/profinet-2015-06-12/profinet/hardware/fpga/profinet/altera_ink_switch/qsys_profinet_system --report-file=bsf:/home/handy/skola/KYR/bakalarka/profinet-2015-06-12/profinet/hardware/fpga/profinet/altera_ink_switch/qsys_profinet_system/qsys_profinet_system.bsf --system-info=DEVICE_FAMILY="Cyclone IV E" --system-info=DEVICE=EP4CE115F29C7 --system-info=DEVICE_SPEEDGRADE=7 --component-file=/home/handy/skola/KYR/bakalarka/profinet-2015-06-12/profinet/hardware/fpga/profinet/altera_ink_switch/qsys_profinet_system.qsys --remove-qsys-generate-warning
Progress: Loading altera_ink_switch/qsys_profinet_system.qsys
Progress: Reading input file
Progress: Adding appl_subsystem [altera_ink_appl_subsystem 1.0]
Progress: Parameterizing module appl_subsystem
Progress: Adding clk_50_A [clock_source 14.1]
Progress: Parameterizing module clk_50_A
Progress: Adding clk_50_B [clock_source 14.1]
Progress: Parameterizing module clk_50_B
Progress: Adding debug_slave [softing_debug_slave 1.0.0]
Progress: Parameterizing module debug_slave
Progress: Adding flash [altera_avalon_epcs_flash_controller 14.1]
Progress: Parameterizing module flash
Progress: Adding pll [altpll 14.1]
Progress: Parameterizing module pll
Progress: Adding pll_sdram [altpll 14.1]
Progress: Parameterizing module pll_sdram
Progress: Adding ram [altera_avalon_new_sdram_controller 14.1]
Progress: Parameterizing module ram
Progress: Adding reset_125mhz [altera_reset_controller 14.1]
Progress: Parameterizing module reset_125mhz
Progress: Adding reset_system [altera_reset_controller 14.1]
Progress: Parameterizing module reset_system
Progress: Adding rte_subsystem [softing_profinet_device_subsystem 1.0]
Progress: Parameterizing module rte_subsystem
Progress: Adding rte_subsystem_reset [altera_reset_bridge 14.1]
Progress: Parameterizing module rte_subsystem_reset
Progress: Adding sram [altera_generic_tristate_controller 14.1]
Progress: Parameterizing module sram
Progress: Adding test_subsystem [softing_test_subsystem 1.0]
Progress: Parameterizing module test_subsystem
Progress: Adding tristate_bus [altera_tristate_conduit_bridge 14.1]
Progress: Parameterizing module tristate_bus
Progress: Adding tristate_bus_arbiter [altera_tristate_conduit_pin_sharer 14.1]
Progress: Parameterizing module tristate_bus_arbiter
Progress: Building connections
Progress: Parameterizing connections
Progress: Validating
Progress: Done reading input file
Warning: qsys_profinet_system.appl_subsystem.cpu: Nios II Classic cores are now superseded by improved Gen 2 cores.
Info: qsys_profinet_system.appl_subsystem.pio_button: PIO inputs are not hardwired in test bench. Undefined values will be read from PIO inputs during simulation.
Info: qsys_profinet_system.appl_subsystem.pio_int_from_fieldbus: PIO inputs are not hardwired in test bench. Undefined values will be read from PIO inputs during simulation.
Info: qsys_profinet_system.appl_subsystem.pio_key: PIO inputs are not hardwired in test bench. Undefined values will be read from PIO inputs during simulation.
Info: qsys_profinet_system.appl_subsystem.pio_sync: PIO inputs are not hardwired in test bench. Undefined values will be read from PIO inputs during simulation.
Info: qsys_profinet_system.flash: Dedicated AS interface is not supported, signals are exported to top level design.
Info: qsys_profinet_system.rte_subsystem: CPU reset vector starts from RAM.
Info: qsys_profinet_system.rte_subsystem: Socket interface for Simple-Device-Application-Interface (SDAI) enabled.
Warning: qsys_profinet_system.rte_subsystem.cpu: Nios II Classic cores are now superseded by improved Gen 2 cores.
Info: qsys_profinet_system.rte_subsystem.pio_phy: PIO inputs are not hardwired in test bench. Undefined values will be read from PIO inputs during simulation.
Info: qsys_profinet_system.rte_subsystem.switch: MDIO Clock is set to 6.25 MHz
Warning: qsys_profinet_system.rte_subsystem.fieldbus_utility: Interrupt sender fieldbus_utility.dma_interrupt is not connected to an interrupt receiver
Warning: qsys_profinet_system.rte_subsystem.jtag_uart: Interrupt sender jtag_uart.irq is not connected to an interrupt receiver
Warning: qsys_profinet_system.pll: pll.areset_conduit must be exported, or connected to a matching conduit.
Warning: qsys_profinet_system.pll: pll.phasedone_conduit must be exported, or connected to a matching conduit.
Warning: qsys_profinet_system.pll_sdram: pll_sdram.areset_conduit must be exported, or connected to a matching conduit.
Warning: qsys_profinet_system.pll_sdram: pll_sdram.phasedone_conduit must be exported, or connected to a matching conduit.
Warning: qsys_profinet_system.rte_subsystem: rte_subsystem.pio_virtual_flash must be exported, or connected to a matching conduit.
Warning: qsys_profinet_system.rte_subsystem: rte_subsystem.extbus_to_avm_bus must be exported, or connected to a matching conduit.
Warning: qsys_profinet_system.rte_subsystem: rte_subsystem.extbus_to_avm_reset must be exported, or connected to a matching conduit.
Warning: qsys_profinet_system.debug_slave: Interrupt sender debug_slave.irq_output is not connected to an interrupt receiver
Warning: qsys_profinet_system.flash: Interrupt sender flash.irq is not connected to an interrupt receiver
Warning: qsys_profinet_system.: You have exported the interface rte_subsystem_reset.in_reset but not its associated clock interface.  Export the driver of rte_subsystem_reset.clk
Info: ip-generate succeeded.
Info: Finished: Create block symbol file (.bsf)
Info: 
Info: Starting: Create HDL design files for synthesis
Info: ip-generate --project-directory=/home/handy/skola/KYR/bakalarka/profinet-2015-06-12/profinet/hardware/fpga/profinet/altera_ink_switch --output-directory=/home/handy/skola/KYR/bakalarka/profinet-2015-06-12/profinet/hardware/fpga/profinet/altera_ink_switch/qsys_profinet_system/synthesis --file-set=QUARTUS_SYNTH --report-file=html:/home/handy/skola/KYR/bakalarka/profinet-2015-06-12/profinet/hardware/fpga/profinet/altera_ink_switch/qsys_profinet_system/qsys_profinet_system.html --report-file=sopcinfo:/home/handy/skola/KYR/bakalarka/profinet-2015-06-12/profinet/hardware/fpga/profinet/altera_ink_switch/qsys_profinet_system.sopcinfo --report-file=cmp:/home/handy/skola/KYR/bakalarka/profinet-2015-06-12/profinet/hardware/fpga/profinet/altera_ink_switch/qsys_profinet_system/qsys_profinet_system.cmp --report-file=qip:/home/handy/skola/KYR/bakalarka/profinet-2015-06-12/profinet/hardware/fpga/profinet/altera_ink_switch/qsys_profinet_system/synthesis/qsys_profinet_system.qip --report-file=svd:/home/handy/skola/KYR/bakalarka/profinet-2015-06-12/profinet/hardware/fpga/profinet/altera_ink_switch/qsys_profinet_system/synthesis/qsys_profinet_system.svd --report-file=regmap:/home/handy/skola/KYR/bakalarka/profinet-2015-06-12/profinet/hardware/fpga/profinet/altera_ink_switch/qsys_profinet_system/synthesis/qsys_profinet_system.regmap --report-file=xml:/home/handy/skola/KYR/bakalarka/profinet-2015-06-12/profinet/hardware/fpga/profinet/altera_ink_switch/qsys_profinet_system/qsys_profinet_system.xml --report-file=debuginfo:/home/handy/skola/KYR/bakalarka/profinet-2015-06-12/profinet/hardware/fpga/profinet/altera_ink_switch/qsys_profinet_system/synthesis/qsys_profinet_system.debuginfo --system-info=DEVICE_FAMILY="Cyclone IV E" --system-info=DEVICE=EP4CE115F29C7 --system-info=DEVICE_SPEEDGRADE=7 --component-file=/home/handy/skola/KYR/bakalarka/profinet-2015-06-12/profinet/hardware/fpga/profinet/altera_ink_switch/qsys_profinet_system.qsys --remove-qsys-generate-warning --language=VERILOG
Progress: Loading altera_ink_switch/qsys_profinet_system.qsys
Progress: Reading input file
Progress: Adding appl_subsystem [altera_ink_appl_subsystem 1.0]
Progress: Parameterizing module appl_subsystem
Progress: Adding clk_50_A [clock_source 14.1]
Progress: Parameterizing module clk_50_A
Progress: Adding clk_50_B [clock_source 14.1]
Progress: Parameterizing module clk_50_B
Progress: Adding debug_slave [softing_debug_slave 1.0.0]
Progress: Parameterizing module debug_slave
Progress: Adding flash [altera_avalon_epcs_flash_controller 14.1]
Progress: Parameterizing module flash
Progress: Adding pll [altpll 14.1]
Progress: Parameterizing module pll
Progress: Adding pll_sdram [altpll 14.1]
Progress: Parameterizing module pll_sdram
Progress: Adding ram [altera_avalon_new_sdram_controller 14.1]
Progress: Parameterizing module ram
Progress: Adding reset_125mhz [altera_reset_controller 14.1]
Progress: Parameterizing module reset_125mhz
Progress: Adding reset_system [altera_reset_controller 14.1]
Progress: Parameterizing module reset_system
Progress: Adding rte_subsystem [softing_profinet_device_subsystem 1.0]
Progress: Parameterizing module rte_subsystem
Progress: Adding rte_subsystem_reset [altera_reset_bridge 14.1]
Progress: Parameterizing module rte_subsystem_reset
Progress: Adding sram [altera_generic_tristate_controller 14.1]
Progress: Parameterizing module sram
Progress: Adding test_subsystem [softing_test_subsystem 1.0]
Progress: Parameterizing module test_subsystem
Progress: Adding tristate_bus [altera_tristate_conduit_bridge 14.1]
Progress: Parameterizing module tristate_bus
Progress: Adding tristate_bus_arbiter [altera_tristate_conduit_pin_sharer 14.1]
Progress: Parameterizing module tristate_bus_arbiter
Progress: Building connections
Progress: Parameterizing connections
Progress: Validating
Progress: Done reading input file
Warning: qsys_profinet_system.appl_subsystem.cpu: Nios II Classic cores are now superseded by improved Gen 2 cores.
Info: qsys_profinet_system.appl_subsystem.pio_button: PIO inputs are not hardwired in test bench. Undefined values will be read from PIO inputs during simulation.
Info: qsys_profinet_system.appl_subsystem.pio_int_from_fieldbus: PIO inputs are not hardwired in test bench. Undefined values will be read from PIO inputs during simulation.
Info: qsys_profinet_system.appl_subsystem.pio_key: PIO inputs are not hardwired in test bench. Undefined values will be read from PIO inputs during simulation.
Info: qsys_profinet_system.appl_subsystem.pio_sync: PIO inputs are not hardwired in test bench. Undefined values will be read from PIO inputs during simulation.
Info: qsys_profinet_system.flash: Dedicated AS interface is not supported, signals are exported to top level design.
Info: qsys_profinet_system.rte_subsystem: CPU reset vector starts from RAM.
Info: qsys_profinet_system.rte_subsystem: Socket interface for Simple-Device-Application-Interface (SDAI) enabled.
Warning: qsys_profinet_system.rte_subsystem.cpu: Nios II Classic cores are now superseded by improved Gen 2 cores.
Info: qsys_profinet_system.rte_subsystem.pio_phy: PIO inputs are not hardwired in test bench. Undefined values will be read from PIO inputs during simulation.
Info: qsys_profinet_system.rte_subsystem.switch: MDIO Clock is set to 6.25 MHz
Warning: qsys_profinet_system.rte_subsystem.fieldbus_utility: Interrupt sender fieldbus_utility.dma_interrupt is not connected to an interrupt receiver
Warning: qsys_profinet_system.rte_subsystem.jtag_uart: Interrupt sender jtag_uart.irq is not connected to an interrupt receiver
Warning: qsys_profinet_system.pll: pll.areset_conduit must be exported, or connected to a matching conduit.
Warning: qsys_profinet_system.pll: pll.phasedone_conduit must be exported, or connected to a matching conduit.
Warning: qsys_profinet_system.pll_sdram: pll_sdram.areset_conduit must be exported, or connected to a matching conduit.
Warning: qsys_profinet_system.pll_sdram: pll_sdram.phasedone_conduit must be exported, or connected to a matching conduit.
Warning: qsys_profinet_system.rte_subsystem: rte_subsystem.pio_virtual_flash must be exported, or connected to a matching conduit.
Warning: qsys_profinet_system.rte_subsystem: rte_subsystem.extbus_to_avm_bus must be exported, or connected to a matching conduit.
Warning: qsys_profinet_system.rte_subsystem: rte_subsystem.extbus_to_avm_reset must be exported, or connected to a matching conduit.
Warning: qsys_profinet_system.debug_slave: Interrupt sender debug_slave.irq_output is not connected to an interrupt receiver
Warning: qsys_profinet_system.flash: Interrupt sender flash.irq is not connected to an interrupt receiver
Warning: qsys_profinet_system.: You have exported the interface rte_subsystem_reset.in_reset but not its associated clock interface.  Export the driver of rte_subsystem_reset.clk
Info: qsys_profinet_system: Generating qsys_profinet_system "qsys_profinet_system" for QUARTUS_SYNTH
Info: Inserting clock-crossing logic between cmd_demux.src1 and cmd_mux_001.sink0
Info: Inserting clock-crossing logic between cmd_demux_001.src0 and cmd_mux.sink1
Info: Inserting clock-crossing logic between cmd_demux_001.src1 and cmd_mux_008.sink0
Info: Inserting clock-crossing logic between cmd_demux_004.src1 and cmd_mux_001.sink1
Info: Inserting clock-crossing logic between cmd_demux_004.src3 and cmd_mux_003.sink0
Info: Inserting clock-crossing logic between cmd_demux_004.src4 and cmd_mux_004.sink0
Info: Inserting clock-crossing logic between rsp_demux.src1 and rsp_mux_001.sink0
Info: Inserting clock-crossing logic between rsp_demux_001.src0 and rsp_mux.sink1
Info: Inserting clock-crossing logic between rsp_demux_001.src1 and rsp_mux_004.sink1
Info: Inserting clock-crossing logic between rsp_demux_003.src0 and rsp_mux_004.sink3
Info: Inserting clock-crossing logic between rsp_demux_004.src0 and rsp_mux_004.sink4
Info: Inserting clock-crossing logic between rsp_demux_008.src0 and rsp_mux_001.sink1
Warning: qsys_profinet_system: "No matching role found for flash:epcs_control_port:dataavailable (dataavailable)"
Warning: qsys_profinet_system: "No matching role found for flash:epcs_control_port:endofpacket (endofpacket)"
Warning: qsys_profinet_system: "No matching role found for flash:epcs_control_port:readyfordata (readyfordata)"
Info: Interconnect is inserted between master cpu.tightly_coupled_instruction_master_0 and slave instruction_tcm.s1 because the master has waitrequest signal 1 bit wide, but the slave is 0 bit wide.
Info: Interconnect is inserted between master cpu.tightly_coupled_instruction_master_0 and slave instruction_tcm.s1 because the master has readdatavalid signal 1 bit wide, but the slave is 0 bit wide.
Info: Interconnect is inserted between master cpu.tightly_coupled_instruction_master_0 and slave instruction_tcm.s1 because the master has address signal 14 bit wide, but the slave is 11 bit wide.
Info: Interconnect is inserted between master cpu.tightly_coupled_instruction_master_0 and slave instruction_tcm.s1 because the master has read signal 1 bit wide, but the slave is 0 bit wide.
Info: appl_subsystem: "qsys_profinet_system" instantiated altera_ink_appl_subsystem "appl_subsystem"
Info: debug_slave: "qsys_profinet_system" instantiated softing_debug_slave "debug_slave"
Info: flash: Starting RTL generation for module 'qsys_profinet_system_flash'
Info: flash:   Generation command is [exec /opt/Quartus-14.1/quartus/linux64/perl/bin/perl -I /opt/Quartus-14.1/quartus/linux64/perl/lib -I /opt/Quartus-14.1/quartus/sopc_builder/bin/europa -I /opt/Quartus-14.1/quartus/sopc_builder/bin/perl_lib -I /opt/Quartus-14.1/quartus/sopc_builder/bin -I /opt/Quartus-14.1/quartus/../ip/altera/sopc_builder_ip/common -I /opt/Quartus-14.1/quartus/../ip/altera/sopc_builder_ip/altera_avalon_epcs_flash_controller -- /opt/Quartus-14.1/quartus/../ip/altera/sopc_builder_ip/altera_avalon_epcs_flash_controller/generate_rtl.pl --name=qsys_profinet_system_flash --dir=/tmp/alt6923_5550029592242065613.dir/0004_flash_gen/ --quartus_dir=/opt/Quartus-14.1/quartus --verilog --config=/tmp/alt6923_5550029592242065613.dir/0004_flash_gen//qsys_profinet_system_flash_component_configuration.pl  --do_build_sim=0  ]
Info: flash: Done RTL generation for module 'qsys_profinet_system_flash'
Info: flash: "qsys_profinet_system" instantiated altera_avalon_epcs_flash_controller "flash"
Info: pll: "qsys_profinet_system" instantiated altpll "pll"
Info: pll_sdram: "qsys_profinet_system" instantiated altpll "pll_sdram"
Info: ram: Starting RTL generation for module 'qsys_profinet_system_ram'
Info: ram:   Generation command is [exec /opt/Quartus-14.1/quartus/linux64/perl/bin/perl -I /opt/Quartus-14.1/quartus/linux64/perl/lib -I /opt/Quartus-14.1/quartus/sopc_builder/bin/europa -I /opt/Quartus-14.1/quartus/sopc_builder/bin/perl_lib -I /opt/Quartus-14.1/quartus/sopc_builder/bin -I /opt/Quartus-14.1/quartus/../ip/altera/sopc_builder_ip/common -I /opt/Quartus-14.1/quartus/../ip/altera/sopc_builder_ip/altera_avalon_new_sdram_controller -- /opt/Quartus-14.1/quartus/../ip/altera/sopc_builder_ip/altera_avalon_new_sdram_controller/generate_rtl.pl --name=qsys_profinet_system_ram --dir=/tmp/alt6923_5550029592242065613.dir/0009_ram_gen/ --quartus_dir=/opt/Quartus-14.1/quartus --verilog --config=/tmp/alt6923_5550029592242065613.dir/0009_ram_gen//qsys_profinet_system_ram_component_configuration.pl  --do_build_sim=0  ]
Info: ram: Done RTL generation for module 'qsys_profinet_system_ram'
Info: ram: "qsys_profinet_system" instantiated altera_avalon_new_sdram_controller "ram"
Info: reset_125mhz: "qsys_profinet_system" instantiated altera_reset_controller "reset_125mhz"
Info: Inserting clock-crossing logic between cmd_demux.src0 and cmd_mux.sink0
Info: Inserting clock-crossing logic between cmd_demux.src1 and cmd_mux_001.sink0
Info: Inserting clock-crossing logic between cmd_demux_001.src0 and cmd_mux.sink1
Info: Inserting clock-crossing logic between cmd_demux_001.src1 and cmd_mux_001.sink1
Info: Inserting clock-crossing logic between cmd_demux_002.src4 and cmd_mux_004.sink0
Info: Inserting clock-crossing logic between cmd_demux_002.src6 and cmd_mux_006.sink0
Info: Inserting clock-crossing logic between cmd_demux_002.src8 and cmd_mux_008.sink0
Info: Inserting clock-crossing logic between cmd_demux_002.src9 and cmd_mux_009.sink0
Info: Inserting clock-crossing logic between cmd_demux_002.src11 and cmd_mux_011.sink0
Info: Inserting clock-crossing logic between cmd_demux_002.src13 and cmd_mux_013.sink0
Info: Inserting clock-crossing logic between cmd_demux_002.src17 and cmd_mux_017.sink0
Info: Inserting clock-crossing logic between cmd_demux_003.src0 and cmd_mux.sink3
Info: Inserting clock-crossing logic between cmd_demux_004.src0 and cmd_mux.sink4
Info: Inserting clock-crossing logic between cmd_demux_005.src0 and cmd_mux.sink5
Info: Inserting clock-crossing logic between cmd_demux_006.src0 and cmd_mux.sink6
Info: Inserting clock-crossing logic between cmd_demux_007.src0 and cmd_mux.sink7
Info: Inserting clock-crossing logic between cmd_demux_009.src0 and cmd_mux_006.sink1
Info: Inserting clock-crossing logic between cmd_demux_009.src1 and cmd_mux_008.sink1
Info: Inserting clock-crossing logic between cmd_demux_009.src3 and cmd_mux_011.sink1
Info: Inserting clock-crossing logic between cmd_demux_009.src5 and cmd_mux_013.sink3
Info: Inserting clock-crossing logic between cmd_demux_012.src0 and cmd_mux_010.sink3
Info: Inserting clock-crossing logic between rsp_demux.src0 and rsp_mux.sink0
Info: Inserting clock-crossing logic between rsp_demux.src1 and rsp_mux_001.sink0
Info: Inserting clock-crossing logic between rsp_demux.src3 and rsp_mux_003.sink0
Info: Inserting clock-crossing logic between rsp_demux.src4 and rsp_mux_004.sink0
Info: Inserting clock-crossing logic between rsp_demux.src5 and rsp_mux_005.sink0
Info: Inserting clock-crossing logic between rsp_demux.src6 and rsp_mux_006.sink0
Info: Inserting clock-crossing logic between rsp_demux.src7 and rsp_mux_007.sink0
Info: Inserting clock-crossing logic between rsp_demux_001.src0 and rsp_mux.sink1
Info: Inserting clock-crossing logic between rsp_demux_001.src1 and rsp_mux_001.sink1
Info: Inserting clock-crossing logic between rsp_demux_004.src0 and rsp_mux_002.sink4
Info: Inserting clock-crossing logic between rsp_demux_006.src0 and rsp_mux_002.sink6
Info: Inserting clock-crossing logic between rsp_demux_006.src1 and rsp_mux_009.sink0
Info: Inserting clock-crossing logic between rsp_demux_008.src0 and rsp_mux_002.sink8
Info: Inserting clock-crossing logic between rsp_demux_008.src1 and rsp_mux_009.sink1
Info: Inserting clock-crossing logic between rsp_demux_009.src0 and rsp_mux_002.sink9
Info: Inserting clock-crossing logic between rsp_demux_010.src3 and rsp_mux_012.sink0
Info: Inserting clock-crossing logic between rsp_demux_011.src0 and rsp_mux_002.sink11
Info: Inserting clock-crossing logic between rsp_demux_011.src1 and rsp_mux_009.sink3
Info: Inserting clock-crossing logic between rsp_demux_013.src0 and rsp_mux_002.sink13
Info: Inserting clock-crossing logic between rsp_demux_013.src3 and rsp_mux_009.sink5
Info: Inserting clock-crossing logic between rsp_demux_017.src0 and rsp_mux_002.sink17
Info: Inserting clock-crossing logic between cpu_data_master_to_fieldbus_utility_mutex_register_cmd_width_adapter.src and cmd_mux_010.sink0
Info: Inserting clock-crossing logic between fieldbus_utility_system_console_master_to_fieldbus_utility_mutex_register_cmd_width_adapter.src and cmd_mux_010.sink1
Info: Inserting clock-crossing logic between mm_bridge_from_appl_m0_to_fieldbus_utility_mutex_register_cmd_width_adapter.src and cmd_mux_010.sink2
Info: Inserting clock-crossing logic between fieldbus_utility_mutex_register_to_cpu_data_master_rsp_width_adapter.src and rsp_mux_002.sink10
Info: Inserting clock-crossing logic between fieldbus_utility_mutex_register_to_fieldbus_utility_system_console_master_rsp_width_adapter.src and rsp_mux_009.sink2
Info: Inserting clock-crossing logic between fieldbus_utility_mutex_register_to_mm_bridge_from_appl_m0_rsp_width_adapter.src and rsp_mux_010.sink0
Info: rte_subsystem: "qsys_profinet_system" instantiated softing_profinet_device_subsystem "rte_subsystem"
Info: sram: "qsys_profinet_system" instantiated altera_generic_tristate_controller "sram"
Info: test_subsystem: "qsys_profinet_system" instantiated softing_test_subsystem "test_subsystem"
Info: tristate_bus: "qsys_profinet_system" instantiated altera_tristate_conduit_bridge "tristate_bus"
Info: tristate_bus_arbiter: "qsys_profinet_system" instantiated altera_tristate_conduit_pin_sharer "tristate_bus_arbiter"
Info: mm_interconnect_1: "qsys_profinet_system" instantiated altera_mm_interconnect "mm_interconnect_1"
Info: cpu: Starting RTL generation for module 'qsys_profinet_system_appl_subsystem_cpu'
Info: cpu:   Generation command is [exec /opt/Quartus-14.1/quartus/linux64/eperlcmd -I /opt/Quartus-14.1/quartus/linux64/perl/lib -I /opt/Quartus-14.1/quartus/sopc_builder/bin/europa -I /opt/Quartus-14.1/quartus/sopc_builder/bin/perl_lib -I /opt/Quartus-14.1/quartus/sopc_builder/bin -I /opt/Quartus-14.1/quartus/../ip/altera/nios2_ip/altera_nios2/cpu_lib -I /opt/Quartus-14.1/quartus/../ip/altera/nios2_ip/altera_nios2/nios_lib -I /opt/Quartus-14.1/quartus/../ip/altera/nios2_ip/altera_nios2 -I /opt/Quartus-14.1/quartus/../ip/altera/nios2_ip/altera_nios2 -- /opt/Quartus-14.1/quartus/../ip/altera/nios2_ip/altera_nios2/generate_rtl.epl --name=qsys_profinet_system_appl_subsystem_cpu --dir=/tmp/alt6923_5550029592242065613.dir/0012_cpu_gen/ --quartus_bindir=/opt/Quartus-14.1/quartus/linux64 --verilog --config=/tmp/alt6923_5550029592242065613.dir/0012_cpu_gen//qsys_profinet_system_appl_subsystem_cpu_processor_configuration.pl  --do_build_sim=0  ]
Info: cpu: # 2016.05.02 15:00:09 (*) Starting Nios II generation
Info: cpu: # 2016.05.02 15:00:09 (*)   Checking for plaintext license.
Info: cpu: # 2016.05.02 15:00:11 (*)   Plaintext license not found.
Info: cpu: # 2016.05.02 15:00:11 (*)   Checking for encrypted license (non-evaluation).
Info: cpu: # 2016.05.02 15:00:13 (*)   Encrypted license found.  SOF will not be time-limited.
Info: cpu: # 2016.05.02 15:00:13 (*)   Elaborating CPU configuration settings
Info: cpu: # 2016.05.02 15:00:13 (*)   Creating all objects for CPU
Info: cpu: # 2016.05.02 15:00:13 (*)     Testbench
Info: cpu: # 2016.05.02 15:00:13 (*)     Instruction decoding
Info: cpu: # 2016.05.02 15:00:13 (*)       Instruction fields
Info: cpu: # 2016.05.02 15:00:14 (*)       Instruction decodes
Info: cpu: # 2016.05.02 15:00:14 (*)       Signals for RTL simulation waveforms
Info: cpu: # 2016.05.02 15:00:14 (*)       Instruction controls
Info: cpu: # 2016.05.02 15:00:14 (*)     Pipeline frontend
Info: cpu: # 2016.05.02 15:00:14 (*)   Master tightly_coupled_instruction_master_0 address range (0x2000, 0x3fff) overlaps with master instruction_master address range (0x800, 0x7fffffff)
Info: cpu: # 2016.05.02 15:00:14 (*)   Master instruction_master address range (0x800, 0x7fffffff) overlaps with master tightly_coupled_instruction_master_0 address range (0x2000, 0x3fff)
Info: cpu: # 2016.05.02 15:00:14 (*)   Generating non-optimal tightly-coupled master logic due to overlap
Info: cpu: # 2016.05.02 15:00:14 (*)     Pipeline backend
Info: cpu: # 2016.05.02 15:00:17 (*)   Generating RTL from CPU objects
Info: cpu: # 2016.05.02 15:00:21 (*)   Creating encrypted RTL
Info: cpu: # 2016.05.02 15:00:22 (*) Done Nios II generation
Info: cpu: Done RTL generation for module 'qsys_profinet_system_appl_subsystem_cpu'
Info: cpu: "appl_subsystem" instantiated altera_nios2_qsys "cpu"
Info: instruction_tcm: Starting RTL generation for module 'qsys_profinet_system_appl_subsystem_instruction_tcm'
Info: instruction_tcm:   Generation command is [exec /opt/Quartus-14.1/quartus/linux64/perl/bin/perl -I /opt/Quartus-14.1/quartus/linux64/perl/lib -I /opt/Quartus-14.1/quartus/sopc_builder/bin/europa -I /opt/Quartus-14.1/quartus/sopc_builder/bin/perl_lib -I /opt/Quartus-14.1/quartus/sopc_builder/bin -I /opt/Quartus-14.1/quartus/../ip/altera/sopc_builder_ip/common -I /opt/Quartus-14.1/quartus/../ip/altera/sopc_builder_ip/altera_avalon_onchip_memory2 -- /opt/Quartus-14.1/quartus/../ip/altera/sopc_builder_ip/altera_avalon_onchip_memory2/generate_rtl.pl --name=qsys_profinet_system_appl_subsystem_instruction_tcm --dir=/tmp/alt6923_5550029592242065613.dir/0013_instruction_tcm_gen/ --quartus_dir=/opt/Quartus-14.1/quartus --verilog --config=/tmp/alt6923_5550029592242065613.dir/0013_instruction_tcm_gen//qsys_profinet_system_appl_subsystem_instruction_tcm_component_configuration.pl  --do_build_sim=0  ]
Info: instruction_tcm: Done RTL generation for module 'qsys_profinet_system_appl_subsystem_instruction_tcm'
Info: instruction_tcm: "appl_subsystem" instantiated altera_avalon_onchip_memory2 "instruction_tcm"
Info: jtag_mm_ink_switch: "appl_subsystem" instantiated altera_jtag_avalon_master "jtag_mm_ink_switch"
Info: jtag_uart: Starting RTL generation for module 'qsys_profinet_system_appl_subsystem_jtag_uart'
Info: jtag_uart:   Generation command is [exec /opt/Quartus-14.1/quartus/linux64/perl/bin/perl -I /opt/Quartus-14.1/quartus/linux64/perl/lib -I /opt/Quartus-14.1/quartus/sopc_builder/bin/europa -I /opt/Quartus-14.1/quartus/sopc_builder/bin/perl_lib -I /opt/Quartus-14.1/quartus/sopc_builder/bin -I /opt/Quartus-14.1/quartus/../ip/altera/sopc_builder_ip/common -I /opt/Quartus-14.1/quartus/../ip/altera/sopc_builder_ip/altera_avalon_jtag_uart -- /opt/Quartus-14.1/quartus/../ip/altera/sopc_builder_ip/altera_avalon_jtag_uart/generate_rtl.pl --name=qsys_profinet_system_appl_subsystem_jtag_uart --dir=/tmp/alt6923_5550029592242065613.dir/0014_jtag_uart_gen/ --quartus_dir=/opt/Quartus-14.1/quartus --verilog --config=/tmp/alt6923_5550029592242065613.dir/0014_jtag_uart_gen//qsys_profinet_system_appl_subsystem_jtag_uart_component_configuration.pl  --do_build_sim=0  ]
Info: jtag_uart: Done RTL generation for module 'qsys_profinet_system_appl_subsystem_jtag_uart'
Info: jtag_uart: "appl_subsystem" instantiated altera_avalon_jtag_uart "jtag_uart"
Info: lcd: Starting RTL generation for module 'qsys_profinet_system_appl_subsystem_lcd'
Info: lcd:   Generation command is [exec /opt/Quartus-14.1/quartus/linux64/perl/bin/perl -I /opt/Quartus-14.1/quartus/linux64/perl/lib -I /opt/Quartus-14.1/quartus/sopc_builder/bin/europa -I /opt/Quartus-14.1/quartus/sopc_builder/bin/perl_lib -I /opt/Quartus-14.1/quartus/sopc_builder/bin -I /opt/Quartus-14.1/quartus/../ip/altera/sopc_builder_ip/common -I /opt/Quartus-14.1/quartus/../ip/altera/sopc_builder_ip/altera_avalon_lcd_16207 -- /opt/Quartus-14.1/quartus/../ip/altera/sopc_builder_ip/altera_avalon_lcd_16207/generate_rtl.pl --name=qsys_profinet_system_appl_subsystem_lcd --dir=/tmp/alt6923_5550029592242065613.dir/0015_lcd_gen/ --quartus_dir=/opt/Quartus-14.1/quartus --verilog --config=/tmp/alt6923_5550029592242065613.dir/0015_lcd_gen//qsys_profinet_system_appl_subsystem_lcd_component_configuration.pl  --do_build_sim=0  ]
Info: lcd: Done RTL generation for module 'qsys_profinet_system_appl_subsystem_lcd'
Info: lcd: "appl_subsystem" instantiated altera_avalon_lcd_16207 "lcd"
Info: mm_bridge_to_fieldbus: "appl_subsystem" instantiated altera_avalon_mm_bridge "mm_bridge_to_fieldbus"
Info: pio_axis0_reference: Starting RTL generation for module 'qsys_profinet_system_appl_subsystem_pio_axis0_reference'
Info: pio_axis0_reference:   Generation command is [exec /opt/Quartus-14.1/quartus/linux64/perl/bin/perl -I /opt/Quartus-14.1/quartus/linux64/perl/lib -I /opt/Quartus-14.1/quartus/sopc_builder/bin/europa -I /opt/Quartus-14.1/quartus/sopc_builder/bin/perl_lib -I /opt/Quartus-14.1/quartus/sopc_builder/bin -I /opt/Quartus-14.1/quartus/../ip/altera/sopc_builder_ip/common -I /opt/Quartus-14.1/quartus/../ip/altera/sopc_builder_ip/altera_avalon_pio -- /opt/Quartus-14.1/quartus/../ip/altera/sopc_builder_ip/altera_avalon_pio/generate_rtl.pl --name=qsys_profinet_system_appl_subsystem_pio_axis0_reference --dir=/tmp/alt6923_5550029592242065613.dir/0016_pio_axis0_reference_gen/ --quartus_dir=/opt/Quartus-14.1/quartus --verilog --config=/tmp/alt6923_5550029592242065613.dir/0016_pio_axis0_reference_gen//qsys_profinet_system_appl_subsystem_pio_axis0_reference_component_configuration.pl  --do_build_sim=0  ]
Info: pio_axis0_reference: Done RTL generation for module 'qsys_profinet_system_appl_subsystem_pio_axis0_reference'
Info: pio_axis0_reference: "appl_subsystem" instantiated altera_avalon_pio "pio_axis0_reference"
Info: pio_button: Starting RTL generation for module 'qsys_profinet_system_appl_subsystem_pio_button'
Info: pio_button:   Generation command is [exec /opt/Quartus-14.1/quartus/linux64/perl/bin/perl -I /opt/Quartus-14.1/quartus/linux64/perl/lib -I /opt/Quartus-14.1/quartus/sopc_builder/bin/europa -I /opt/Quartus-14.1/quartus/sopc_builder/bin/perl_lib -I /opt/Quartus-14.1/quartus/sopc_builder/bin -I /opt/Quartus-14.1/quartus/../ip/altera/sopc_builder_ip/common -I /opt/Quartus-14.1/quartus/../ip/altera/sopc_builder_ip/altera_avalon_pio -- /opt/Quartus-14.1/quartus/../ip/altera/sopc_builder_ip/altera_avalon_pio/generate_rtl.pl --name=qsys_profinet_system_appl_subsystem_pio_button --dir=/tmp/alt6923_5550029592242065613.dir/0017_pio_button_gen/ --quartus_dir=/opt/Quartus-14.1/quartus --verilog --config=/tmp/alt6923_5550029592242065613.dir/0017_pio_button_gen//qsys_profinet_system_appl_subsystem_pio_button_component_configuration.pl  --do_build_sim=0  ]
Info: pio_button: Done RTL generation for module 'qsys_profinet_system_appl_subsystem_pio_button'
Info: pio_button: "appl_subsystem" instantiated altera_avalon_pio "pio_button"
Info: pio_int_from_fieldbus: Starting RTL generation for module 'qsys_profinet_system_appl_subsystem_pio_int_from_fieldbus'
Info: pio_int_from_fieldbus:   Generation command is [exec /opt/Quartus-14.1/quartus/linux64/perl/bin/perl -I /opt/Quartus-14.1/quartus/linux64/perl/lib -I /opt/Quartus-14.1/quartus/sopc_builder/bin/europa -I /opt/Quartus-14.1/quartus/sopc_builder/bin/perl_lib -I /opt/Quartus-14.1/quartus/sopc_builder/bin -I /opt/Quartus-14.1/quartus/../ip/altera/sopc_builder_ip/common -I /opt/Quartus-14.1/quartus/../ip/altera/sopc_builder_ip/altera_avalon_pio -- /opt/Quartus-14.1/quartus/../ip/altera/sopc_builder_ip/altera_avalon_pio/generate_rtl.pl --name=qsys_profinet_system_appl_subsystem_pio_int_from_fieldbus --dir=/tmp/alt6923_5550029592242065613.dir/0018_pio_int_from_fieldbus_gen/ --quartus_dir=/opt/Quartus-14.1/quartus --verilog --config=/tmp/alt6923_5550029592242065613.dir/0018_pio_int_from_fieldbus_gen//qsys_profinet_system_appl_subsystem_pio_int_from_fieldbus_component_configuration.pl  --do_build_sim=0  ]
Info: pio_int_from_fieldbus: Done RTL generation for module 'qsys_profinet_system_appl_subsystem_pio_int_from_fieldbus'
Info: pio_int_from_fieldbus: "appl_subsystem" instantiated altera_avalon_pio "pio_int_from_fieldbus"
Info: pio_int_to_fieldbus: Starting RTL generation for module 'qsys_profinet_system_appl_subsystem_pio_int_to_fieldbus'
Info: pio_int_to_fieldbus:   Generation command is [exec /opt/Quartus-14.1/quartus/linux64/perl/bin/perl -I /opt/Quartus-14.1/quartus/linux64/perl/lib -I /opt/Quartus-14.1/quartus/sopc_builder/bin/europa -I /opt/Quartus-14.1/quartus/sopc_builder/bin/perl_lib -I /opt/Quartus-14.1/quartus/sopc_builder/bin -I /opt/Quartus-14.1/quartus/../ip/altera/sopc_builder_ip/common -I /opt/Quartus-14.1/quartus/../ip/altera/sopc_builder_ip/altera_avalon_pio -- /opt/Quartus-14.1/quartus/../ip/altera/sopc_builder_ip/altera_avalon_pio/generate_rtl.pl --name=qsys_profinet_system_appl_subsystem_pio_int_to_fieldbus --dir=/tmp/alt6923_5550029592242065613.dir/0019_pio_int_to_fieldbus_gen/ --quartus_dir=/opt/Quartus-14.1/quartus --verilog --config=/tmp/alt6923_5550029592242065613.dir/0019_pio_int_to_fieldbus_gen//qsys_profinet_system_appl_subsystem_pio_int_to_fieldbus_component_configuration.pl  --do_build_sim=0  ]
Info: pio_int_to_fieldbus: Done RTL generation for module 'qsys_profinet_system_appl_subsystem_pio_int_to_fieldbus'
Info: pio_int_to_fieldbus: "appl_subsystem" instantiated altera_avalon_pio "pio_int_to_fieldbus"
Info: pio_key: Starting RTL generation for module 'qsys_profinet_system_appl_subsystem_pio_key'
Info: pio_key:   Generation command is [exec /opt/Quartus-14.1/quartus/linux64/perl/bin/perl -I /opt/Quartus-14.1/quartus/linux64/perl/lib -I /opt/Quartus-14.1/quartus/sopc_builder/bin/europa -I /opt/Quartus-14.1/quartus/sopc_builder/bin/perl_lib -I /opt/Quartus-14.1/quartus/sopc_builder/bin -I /opt/Quartus-14.1/quartus/../ip/altera/sopc_builder_ip/common -I /opt/Quartus-14.1/quartus/../ip/altera/sopc_builder_ip/altera_avalon_pio -- /opt/Quartus-14.1/quartus/../ip/altera/sopc_builder_ip/altera_avalon_pio/generate_rtl.pl --name=qsys_profinet_system_appl_subsystem_pio_key --dir=/tmp/alt6923_5550029592242065613.dir/0020_pio_key_gen/ --quartus_dir=/opt/Quartus-14.1/quartus --verilog --config=/tmp/alt6923_5550029592242065613.dir/0020_pio_key_gen//qsys_profinet_system_appl_subsystem_pio_key_component_configuration.pl  --do_build_sim=0  ]
Info: pio_key: Done RTL generation for module 'qsys_profinet_system_appl_subsystem_pio_key'
Info: pio_key: "appl_subsystem" instantiated altera_avalon_pio "pio_key"
Info: pio_led_green: Starting RTL generation for module 'qsys_profinet_system_appl_subsystem_pio_led_green'
Info: pio_led_green:   Generation command is [exec /opt/Quartus-14.1/quartus/linux64/perl/bin/perl -I /opt/Quartus-14.1/quartus/linux64/perl/lib -I /opt/Quartus-14.1/quartus/sopc_builder/bin/europa -I /opt/Quartus-14.1/quartus/sopc_builder/bin/perl_lib -I /opt/Quartus-14.1/quartus/sopc_builder/bin -I /opt/Quartus-14.1/quartus/../ip/altera/sopc_builder_ip/common -I /opt/Quartus-14.1/quartus/../ip/altera/sopc_builder_ip/altera_avalon_pio -- /opt/Quartus-14.1/quartus/../ip/altera/sopc_builder_ip/altera_avalon_pio/generate_rtl.pl --name=qsys_profinet_system_appl_subsystem_pio_led_green --dir=/tmp/alt6923_5550029592242065613.dir/0021_pio_led_green_gen/ --quartus_dir=/opt/Quartus-14.1/quartus --verilog --config=/tmp/alt6923_5550029592242065613.dir/0021_pio_led_green_gen//qsys_profinet_system_appl_subsystem_pio_led_green_component_configuration.pl  --do_build_sim=0  ]
Info: pio_led_green: Done RTL generation for module 'qsys_profinet_system_appl_subsystem_pio_led_green'
Info: pio_led_green: "appl_subsystem" instantiated altera_avalon_pio "pio_led_green"
Info: pio_led_red: Starting RTL generation for module 'qsys_profinet_system_appl_subsystem_pio_led_red'
Info: pio_led_red:   Generation command is [exec /opt/Quartus-14.1/quartus/linux64/perl/bin/perl -I /opt/Quartus-14.1/quartus/linux64/perl/lib -I /opt/Quartus-14.1/quartus/sopc_builder/bin/europa -I /opt/Quartus-14.1/quartus/sopc_builder/bin/perl_lib -I /opt/Quartus-14.1/quartus/sopc_builder/bin -I /opt/Quartus-14.1/quartus/../ip/altera/sopc_builder_ip/common -I /opt/Quartus-14.1/quartus/../ip/altera/sopc_builder_ip/altera_avalon_pio -- /opt/Quartus-14.1/quartus/../ip/altera/sopc_builder_ip/altera_avalon_pio/generate_rtl.pl --name=qsys_profinet_system_appl_subsystem_pio_led_red --dir=/tmp/alt6923_5550029592242065613.dir/0022_pio_led_red_gen/ --quartus_dir=/opt/Quartus-14.1/quartus --verilog --config=/tmp/alt6923_5550029592242065613.dir/0022_pio_led_red_gen//qsys_profinet_system_appl_subsystem_pio_led_red_component_configuration.pl  --do_build_sim=0  ]
Info: pio_led_red: Done RTL generation for module 'qsys_profinet_system_appl_subsystem_pio_led_red'
Info: pio_led_red: "appl_subsystem" instantiated altera_avalon_pio "pio_led_red"
Info: pio_performance_indicator: Starting RTL generation for module 'qsys_profinet_system_appl_subsystem_pio_performance_indicator'
Info: pio_performance_indicator:   Generation command is [exec /opt/Quartus-14.1/quartus/linux64/perl/bin/perl -I /opt/Quartus-14.1/quartus/linux64/perl/lib -I /opt/Quartus-14.1/quartus/sopc_builder/bin/europa -I /opt/Quartus-14.1/quartus/sopc_builder/bin/perl_lib -I /opt/Quartus-14.1/quartus/sopc_builder/bin -I /opt/Quartus-14.1/quartus/../ip/altera/sopc_builder_ip/common -I /opt/Quartus-14.1/quartus/../ip/altera/sopc_builder_ip/altera_avalon_pio -- /opt/Quartus-14.1/quartus/../ip/altera/sopc_builder_ip/altera_avalon_pio/generate_rtl.pl --name=qsys_profinet_system_appl_subsystem_pio_performance_indicator --dir=/tmp/alt6923_5550029592242065613.dir/0023_pio_performance_indicator_gen/ --quartus_dir=/opt/Quartus-14.1/quartus --verilog --config=/tmp/alt6923_5550029592242065613.dir/0023_pio_performance_indicator_gen//qsys_profinet_system_appl_subsystem_pio_performance_indicator_component_configuration.pl  --do_build_sim=0  ]
Info: pio_performance_indicator: Done RTL generation for module 'qsys_profinet_system_appl_subsystem_pio_performance_indicator'
Info: pio_performance_indicator: "appl_subsystem" instantiated altera_avalon_pio "pio_performance_indicator"
Info: pio_reset_cpu_fieldbus: Starting RTL generation for module 'qsys_profinet_system_appl_subsystem_pio_reset_cpu_fieldbus'
Info: pio_reset_cpu_fieldbus:   Generation command is [exec /opt/Quartus-14.1/quartus/linux64/perl/bin/perl -I /opt/Quartus-14.1/quartus/linux64/perl/lib -I /opt/Quartus-14.1/quartus/sopc_builder/bin/europa -I /opt/Quartus-14.1/quartus/sopc_builder/bin/perl_lib -I /opt/Quartus-14.1/quartus/sopc_builder/bin -I /opt/Quartus-14.1/quartus/../ip/altera/sopc_builder_ip/common -I /opt/Quartus-14.1/quartus/../ip/altera/sopc_builder_ip/altera_avalon_pio -- /opt/Quartus-14.1/quartus/../ip/altera/sopc_builder_ip/altera_avalon_pio/generate_rtl.pl --name=qsys_profinet_system_appl_subsystem_pio_reset_cpu_fieldbus --dir=/tmp/alt6923_5550029592242065613.dir/0024_pio_reset_cpu_fieldbus_gen/ --quartus_dir=/opt/Quartus-14.1/quartus --verilog --config=/tmp/alt6923_5550029592242065613.dir/0024_pio_reset_cpu_fieldbus_gen//qsys_profinet_system_appl_subsystem_pio_reset_cpu_fieldbus_component_configuration.pl  --do_build_sim=0  ]
Info: pio_reset_cpu_fieldbus: Done RTL generation for module 'qsys_profinet_system_appl_subsystem_pio_reset_cpu_fieldbus'
Info: pio_reset_cpu_fieldbus: "appl_subsystem" instantiated altera_avalon_pio "pio_reset_cpu_fieldbus"
Info: pio_sync: Starting RTL generation for module 'qsys_profinet_system_appl_subsystem_pio_sync'
Info: pio_sync:   Generation command is [exec /opt/Quartus-14.1/quartus/linux64/perl/bin/perl -I /opt/Quartus-14.1/quartus/linux64/perl/lib -I /opt/Quartus-14.1/quartus/sopc_builder/bin/europa -I /opt/Quartus-14.1/quartus/sopc_builder/bin/perl_lib -I /opt/Quartus-14.1/quartus/sopc_builder/bin -I /opt/Quartus-14.1/quartus/../ip/altera/sopc_builder_ip/common -I /opt/Quartus-14.1/quartus/../ip/altera/sopc_builder_ip/altera_avalon_pio -- /opt/Quartus-14.1/quartus/../ip/altera/sopc_builder_ip/altera_avalon_pio/generate_rtl.pl --name=qsys_profinet_system_appl_subsystem_pio_sync --dir=/tmp/alt6923_5550029592242065613.dir/0025_pio_sync_gen/ --quartus_dir=/opt/Quartus-14.1/quartus --verilog --config=/tmp/alt6923_5550029592242065613.dir/0025_pio_sync_gen//qsys_profinet_system_appl_subsystem_pio_sync_component_configuration.pl  --do_build_sim=0  ]
Info: pio_sync: Done RTL generation for module 'qsys_profinet_system_appl_subsystem_pio_sync'
Info: pio_sync: "appl_subsystem" instantiated altera_avalon_pio "pio_sync"
Info: seven_segment: "appl_subsystem" instantiated SEG7_IF "seven_segment"
Info: timer: Starting RTL generation for module 'qsys_profinet_system_appl_subsystem_timer'
Info: timer:   Generation command is [exec /opt/Quartus-14.1/quartus/linux64//perl/bin/perl -I /opt/Quartus-14.1/quartus/linux64//perl/lib -I /opt/Quartus-14.1/quartus/sopc_builder/bin/europa -I /opt/Quartus-14.1/quartus/sopc_builder/bin/perl_lib -I /opt/Quartus-14.1/quartus/sopc_builder/bin -I /opt/Quartus-14.1/quartus/../ip/altera/sopc_builder_ip/common -I /opt/Quartus-14.1/quartus/../ip/altera/sopc_builder_ip/altera_avalon_timer -- /opt/Quartus-14.1/quartus/../ip/altera/sopc_builder_ip/altera_avalon_timer/generate_rtl.pl --name=qsys_profinet_system_appl_subsystem_timer --dir=/tmp/alt6923_5550029592242065613.dir/0027_timer_gen/ --quartus_dir=/opt/Quartus-14.1/quartus --verilog --config=/tmp/alt6923_5550029592242065613.dir/0027_timer_gen//qsys_profinet_system_appl_subsystem_timer_component_configuration.pl  --do_build_sim=0  ]
Info: timer: Done RTL generation for module 'qsys_profinet_system_appl_subsystem_timer'
Info: timer: "appl_subsystem" instantiated altera_avalon_timer "timer"
Info: vic: "appl_subsystem" instantiated altera_vic "vic"
Info: mm_interconnect_0: "appl_subsystem" instantiated altera_mm_interconnect "mm_interconnect_0"
Info: mm_interconnect_1: "appl_subsystem" instantiated altera_mm_interconnect "mm_interconnect_1"
Info: irq_mapper: "appl_subsystem" instantiated altera_irq_mapper "irq_mapper"
Info: cpu: Starting RTL generation for module 'qsys_profinet_system_rte_subsystem_cpu'
Info: cpu:   Generation command is [exec /opt/Quartus-14.1/quartus/linux64/eperlcmd -I /opt/Quartus-14.1/quartus/linux64/perl/lib -I /opt/Quartus-14.1/quartus/sopc_builder/bin/europa -I /opt/Quartus-14.1/quartus/sopc_builder/bin/perl_lib -I /opt/Quartus-14.1/quartus/sopc_builder/bin -I /opt/Quartus-14.1/quartus/../ip/altera/nios2_ip/altera_nios2/cpu_lib -I /opt/Quartus-14.1/quartus/../ip/altera/nios2_ip/altera_nios2/nios_lib -I /opt/Quartus-14.1/quartus/../ip/altera/nios2_ip/altera_nios2 -I /opt/Quartus-14.1/quartus/../ip/altera/nios2_ip/altera_nios2 -- /opt/Quartus-14.1/quartus/../ip/altera/nios2_ip/altera_nios2/generate_rtl.epl --name=qsys_profinet_system_rte_subsystem_cpu --dir=/tmp/alt6923_5550029592242065613.dir/0029_cpu_gen/ --quartus_bindir=/opt/Quartus-14.1/quartus/linux64 --verilog --config=/tmp/alt6923_5550029592242065613.dir/0029_cpu_gen//qsys_profinet_system_rte_subsystem_cpu_processor_configuration.pl  --do_build_sim=0  ]
Info: cpu: # 2016.05.02 15:00:32 (*) Starting Nios II generation
Info: cpu: # 2016.05.02 15:00:32 (*)   Checking for plaintext license.
Info: cpu: # 2016.05.02 15:00:35 (*)   Plaintext license not found.
Info: cpu: # 2016.05.02 15:00:35 (*)   Checking for encrypted license (non-evaluation).
Info: cpu: # 2016.05.02 15:00:37 (*)   Encrypted license found.  SOF will not be time-limited.
Info: cpu: # 2016.05.02 15:00:37 (*)   Elaborating CPU configuration settings
Info: cpu: # 2016.05.02 15:00:37 (*)   Creating all objects for CPU
Info: cpu: # 2016.05.02 15:00:37 (*)     Testbench
Info: cpu: # 2016.05.02 15:00:37 (*)     Instruction decoding
Info: cpu: # 2016.05.02 15:00:37 (*)       Instruction fields
Info: cpu: # 2016.05.02 15:00:37 (*)       Instruction decodes
Info: cpu: # 2016.05.02 15:00:38 (*)       Signals for RTL simulation waveforms
Info: cpu: # 2016.05.02 15:00:38 (*)       Instruction controls
Info: cpu: # 2016.05.02 15:00:38 (*)     Pipeline frontend
Info: cpu: # 2016.05.02 15:00:38 (*)     Pipeline backend
Info: cpu: # 2016.05.02 15:00:41 (*)   Generating RTL from CPU objects
Info: cpu: # 2016.05.02 15:00:44 (*)   Creating encrypted RTL
Info: cpu: # 2016.05.02 15:00:45 (*) Done Nios II generation
Info: cpu: Done RTL generation for module 'qsys_profinet_system_rte_subsystem_cpu'
Info: cpu: "rte_subsystem" instantiated altera_nios2_qsys "cpu"
Info: extbus_to_avm: "rte_subsystem" instantiated softing_extbus_to_avm "extbus_to_avm"
Info: fieldbus_utility: "rte_subsystem" instantiated softing_fieldbus_utility_core "fieldbus_utility"
Info: mm_bridge_to_flash: "rte_subsystem" instantiated altera_address_span_extender "mm_bridge_to_flash"
Info: pio_phy: Starting RTL generation for module 'qsys_profinet_system_rte_subsystem_pio_phy'
Info: pio_phy:   Generation command is [exec /opt/Quartus-14.1/quartus/linux64/perl/bin/perl -I /opt/Quartus-14.1/quartus/linux64/perl/lib -I /opt/Quartus-14.1/quartus/sopc_builder/bin/europa -I /opt/Quartus-14.1/quartus/sopc_builder/bin/perl_lib -I /opt/Quartus-14.1/quartus/sopc_builder/bin -I /opt/Quartus-14.1/quartus/../ip/altera/sopc_builder_ip/common -I /opt/Quartus-14.1/quartus/../ip/altera/sopc_builder_ip/altera_avalon_pio -- /opt/Quartus-14.1/quartus/../ip/altera/sopc_builder_ip/altera_avalon_pio/generate_rtl.pl --name=qsys_profinet_system_rte_subsystem_pio_phy --dir=/tmp/alt6923_5550029592242065613.dir/0032_pio_phy_gen/ --quartus_dir=/opt/Quartus-14.1/quartus --verilog --config=/tmp/alt6923_5550029592242065613.dir/0032_pio_phy_gen//qsys_profinet_system_rte_subsystem_pio_phy_component_configuration.pl  --do_build_sim=0  ]
Info: pio_phy: Done RTL generation for module 'qsys_profinet_system_rte_subsystem_pio_phy'
Info: pio_phy: "rte_subsystem" instantiated altera_avalon_pio "pio_phy"
Info: subsystem_capabilities: "rte_subsystem" instantiated system_capabilities "subsystem_capabilities"
Info: switch: "rte_subsystem" instantiated softing_ie_core "switch"
Info: timer: Starting RTL generation for module 'qsys_profinet_system_rte_subsystem_timer'
Info: timer:   Generation command is [exec /opt/Quartus-14.1/quartus/linux64//perl/bin/perl -I /opt/Quartus-14.1/quartus/linux64//perl/lib -I /opt/Quartus-14.1/quartus/sopc_builder/bin/europa -I /opt/Quartus-14.1/quartus/sopc_builder/bin/perl_lib -I /opt/Quartus-14.1/quartus/sopc_builder/bin -I /opt/Quartus-14.1/quartus/../ip/altera/sopc_builder_ip/common -I /opt/Quartus-14.1/quartus/../ip/altera/sopc_builder_ip/altera_avalon_timer -- /opt/Quartus-14.1/quartus/../ip/altera/sopc_builder_ip/altera_avalon_timer/generate_rtl.pl --name=qsys_profinet_system_rte_subsystem_timer --dir=/tmp/alt6923_5550029592242065613.dir/0035_timer_gen/ --quartus_dir=/opt/Quartus-14.1/quartus --verilog --config=/tmp/alt6923_5550029592242065613.dir/0035_timer_gen//qsys_profinet_system_rte_subsystem_timer_component_configuration.pl  --do_build_sim=0  ]
Info: timer: Done RTL generation for module 'qsys_profinet_system_rte_subsystem_timer'
Info: timer: "rte_subsystem" instantiated altera_avalon_timer "timer"
Info: mm_interconnect_0: "rte_subsystem" instantiated altera_mm_interconnect "mm_interconnect_0"
Info: irq_mapper: "rte_subsystem" instantiated altera_irq_mapper "irq_mapper"
Info: irq_mapper_001: "rte_subsystem" instantiated altera_irq_mapper "irq_mapper_001"
Info: irq_synchronizer: "rte_subsystem" instantiated altera_irq_clock_crosser "irq_synchronizer"
Info: tdt: "sram" instantiated altera_tristate_controller_translator "tdt"
Info: slave_translator: "sram" instantiated altera_merlin_slave_translator "slave_translator"
Info: tda: "sram" instantiated altera_tristate_controller_aggregator "tda"
Info: pattern_constant: "test_subsystem" instantiated softing_test_pattern "pattern_constant"
Info: mm_interconnect_0: "test_subsystem" instantiated altera_mm_interconnect "mm_interconnect_0"
Info: mm_interconnect_1: "test_subsystem" instantiated altera_mm_interconnect "mm_interconnect_1"
Info: pin_sharer: "tristate_bus_arbiter" instantiated altera_tristate_conduit_pin_sharer_core "pin_sharer"
Info: arbiter: "tristate_bus_arbiter" instantiated altera_merlin_std_arbitrator "arbiter"
Info: rte_subsystem_mm_bridge_to_flash_translator: "mm_interconnect_1" instantiated altera_merlin_master_translator "rte_subsystem_mm_bridge_to_flash_translator"
Info: rte_subsystem_mm_bridge_to_flash_agent: "mm_interconnect_1" instantiated altera_merlin_master_agent "rte_subsystem_mm_bridge_to_flash_agent"
Info: debug_slave_default_agent: "mm_interconnect_1" instantiated altera_merlin_slave_agent "debug_slave_default_agent"
Info: debug_slave_default_agent_rsp_fifo: "mm_interconnect_1" instantiated altera_avalon_sc_fifo "debug_slave_default_agent_rsp_fifo"
Info: router: "mm_interconnect_1" instantiated altera_merlin_router "router"
Info: router_001: "mm_interconnect_1" instantiated altera_merlin_router "router_001"
Info: router_002: "mm_interconnect_1" instantiated altera_merlin_router "router_002"
Info: router_003: "mm_interconnect_1" instantiated altera_merlin_router "router_003"
Info: router_004: "mm_interconnect_1" instantiated altera_merlin_router "router_004"
Info: router_005: "mm_interconnect_1" instantiated altera_merlin_router "router_005"
Info: router_006: "mm_interconnect_1" instantiated altera_merlin_router "router_006"
Info: router_007: "mm_interconnect_1" instantiated altera_merlin_router "router_007"
Info: router_008: "mm_interconnect_1" instantiated altera_merlin_router "router_008"
Info: router_012: "mm_interconnect_1" instantiated altera_merlin_router "router_012"
Info: router_013: "mm_interconnect_1" instantiated altera_merlin_router "router_013"
Info: router_014: "mm_interconnect_1" instantiated altera_merlin_router "router_014"
Info: rte_subsystem_mm_bridge_to_flash_limiter: "mm_interconnect_1" instantiated altera_merlin_traffic_limiter "rte_subsystem_mm_bridge_to_flash_limiter"
Info: Reusing file /home/handy/skola/KYR/bakalarka/profinet-2015-06-12/profinet/hardware/fpga/profinet/altera_ink_switch/qsys_profinet_system/synthesis/submodules/altera_avalon_sc_fifo.v
Info: sram_uas_burst_adapter: "mm_interconnect_1" instantiated altera_merlin_burst_adapter "sram_uas_burst_adapter"
Info: Reusing file /home/handy/skola/KYR/bakalarka/profinet-2015-06-12/profinet/hardware/fpga/profinet/altera_ink_switch/qsys_profinet_system/synthesis/submodules/altera_avalon_st_pipeline_base.v
Info: cmd_demux: "mm_interconnect_1" instantiated altera_merlin_demultiplexer "cmd_demux"
Info: cmd_demux_001: "mm_interconnect_1" instantiated altera_merlin_demultiplexer "cmd_demux_001"
Info: cmd_demux_002: "mm_interconnect_1" instantiated altera_merlin_demultiplexer "cmd_demux_002"
Info: cmd_demux_004: "mm_interconnect_1" instantiated altera_merlin_demultiplexer "cmd_demux_004"
Info: cmd_demux_005: "mm_interconnect_1" instantiated altera_merlin_demultiplexer "cmd_demux_005"
Info: cmd_mux: "mm_interconnect_1" instantiated altera_merlin_multiplexer "cmd_mux"
Info: cmd_mux_001: "mm_interconnect_1" instantiated altera_merlin_multiplexer "cmd_mux_001"
Info: Reusing file /home/handy/skola/KYR/bakalarka/profinet-2015-06-12/profinet/hardware/fpga/profinet/altera_ink_switch/qsys_profinet_system/synthesis/submodules/altera_merlin_arbitrator.sv
Info: cmd_mux_002: "mm_interconnect_1" instantiated altera_merlin_multiplexer "cmd_mux_002"
Info: Reusing file /home/handy/skola/KYR/bakalarka/profinet-2015-06-12/profinet/hardware/fpga/profinet/altera_ink_switch/qsys_profinet_system/synthesis/submodules/altera_merlin_arbitrator.sv
Info: rsp_demux: "mm_interconnect_1" instantiated altera_merlin_demultiplexer "rsp_demux"
Info: rsp_demux_001: "mm_interconnect_1" instantiated altera_merlin_demultiplexer "rsp_demux_001"
Info: rsp_demux_003: "mm_interconnect_1" instantiated altera_merlin_demultiplexer "rsp_demux_003"
Info: rsp_demux_006: "mm_interconnect_1" instantiated altera_merlin_demultiplexer "rsp_demux_006"
Info: rsp_mux: "mm_interconnect_1" instantiated altera_merlin_multiplexer "rsp_mux"
Info: Reusing file /home/handy/skola/KYR/bakalarka/profinet-2015-06-12/profinet/hardware/fpga/profinet/altera_ink_switch/qsys_profinet_system/synthesis/submodules/altera_merlin_arbitrator.sv
Info: rsp_mux_002: "mm_interconnect_1" instantiated altera_merlin_multiplexer "rsp_mux_002"
Info: Reusing file /home/handy/skola/KYR/bakalarka/profinet-2015-06-12/profinet/hardware/fpga/profinet/altera_ink_switch/qsys_profinet_system/synthesis/submodules/altera_merlin_arbitrator.sv
Info: rsp_mux_004: "mm_interconnect_1" instantiated altera_merlin_multiplexer "rsp_mux_004"
Info: Reusing file /home/handy/skola/KYR/bakalarka/profinet-2015-06-12/profinet/hardware/fpga/profinet/altera_ink_switch/qsys_profinet_system/synthesis/submodules/altera_merlin_arbitrator.sv
Info: rsp_mux_005: "mm_interconnect_1" instantiated altera_merlin_multiplexer "rsp_mux_005"
Info: Reusing file /home/handy/skola/KYR/bakalarka/profinet-2015-06-12/profinet/hardware/fpga/profinet/altera_ink_switch/qsys_profinet_system/synthesis/submodules/altera_merlin_arbitrator.sv
Info: sram_uas_rsp_width_adapter: "mm_interconnect_1" instantiated altera_merlin_width_adapter "sram_uas_rsp_width_adapter"
Info: Reusing file /home/handy/skola/KYR/bakalarka/profinet-2015-06-12/profinet/hardware/fpga/profinet/altera_ink_switch/qsys_profinet_system/synthesis/submodules/altera_merlin_address_alignment.sv
Info: Reusing file /home/handy/skola/KYR/bakalarka/profinet-2015-06-12/profinet/hardware/fpga/profinet/altera_ink_switch/qsys_profinet_system/synthesis/submodules/altera_merlin_burst_uncompressor.sv
Info: crosser: "mm_interconnect_1" instantiated altera_avalon_st_handshake_clock_crosser "crosser"
Info: Reusing file /home/handy/skola/KYR/bakalarka/profinet-2015-06-12/profinet/hardware/fpga/profinet/altera_ink_switch/qsys_profinet_system/synthesis/submodules/altera_avalon_st_pipeline_base.v
Info: jtag_phy_embedded_in_jtag_master: "jtag_mm_ink_switch" instantiated altera_jtag_dc_streaming "jtag_phy_embedded_in_jtag_master"
Info: Reusing file /home/handy/skola/KYR/bakalarka/profinet-2015-06-12/profinet/hardware/fpga/profinet/altera_ink_switch/qsys_profinet_system/synthesis/submodules/altera_avalon_st_clock_crosser.v
Info: Reusing file /home/handy/skola/KYR/bakalarka/profinet-2015-06-12/profinet/hardware/fpga/profinet/altera_ink_switch/qsys_profinet_system/synthesis/submodules/altera_avalon_st_pipeline_base.v
Info: Reusing file /home/handy/skola/KYR/bakalarka/profinet-2015-06-12/profinet/hardware/fpga/profinet/altera_ink_switch/qsys_profinet_system/synthesis/submodules/altera_avalon_st_pipeline_stage.sv
Info: timing_adt: "jtag_mm_ink_switch" instantiated timing_adapter "timing_adt"
Info: b2p: "jtag_mm_ink_switch" instantiated altera_avalon_st_bytes_to_packets "b2p"
Info: p2b: "jtag_mm_ink_switch" instantiated altera_avalon_st_packets_to_bytes "p2b"
Info: transacto: "jtag_mm_ink_switch" instantiated altera_avalon_packets_to_master "transacto"
Info: b2p_adapter: "jtag_mm_ink_switch" instantiated channel_adapter "b2p_adapter"
Info: p2b_adapter: "jtag_mm_ink_switch" instantiated channel_adapter "p2b_adapter"
Info: vic_csr: "vic" instantiated altera_vic_csr "vic_csr"
Info: vic_priority: "vic" instantiated altera_vic_priority "vic_priority"
Info: vic_vector: "vic" instantiated altera_vic_vector "vic_vector"
Info: router: "mm_interconnect_0" instantiated altera_merlin_router "router"
Info: router_001: "mm_interconnect_0" instantiated altera_merlin_router "router_001"
Info: router_002: "mm_interconnect_0" instantiated altera_merlin_router "router_002"
Info: router_003: "mm_interconnect_0" instantiated altera_merlin_router "router_003"
Info: router_004: "mm_interconnect_0" instantiated altera_merlin_router "router_004"
Info: router_007: "mm_interconnect_0" instantiated altera_merlin_router "router_007"
Info: cmd_demux: "mm_interconnect_0" instantiated altera_merlin_demultiplexer "cmd_demux"
Info: cmd_demux_001: "mm_interconnect_0" instantiated altera_merlin_demultiplexer "cmd_demux_001"
Info: cmd_demux_002: "mm_interconnect_0" instantiated altera_merlin_demultiplexer "cmd_demux_002"
Info: cmd_mux: "mm_interconnect_0" instantiated altera_merlin_multiplexer "cmd_mux"
Info: Reusing file /home/handy/skola/KYR/bakalarka/profinet-2015-06-12/profinet/hardware/fpga/profinet/altera_ink_switch/qsys_profinet_system/synthesis/submodules/altera_merlin_arbitrator.sv
Info: cmd_mux_001: "mm_interconnect_0" instantiated altera_merlin_multiplexer "cmd_mux_001"
Info: Reusing file /home/handy/skola/KYR/bakalarka/profinet-2015-06-12/profinet/hardware/fpga/profinet/altera_ink_switch/qsys_profinet_system/synthesis/submodules/altera_merlin_arbitrator.sv
Info: rsp_demux: "mm_interconnect_0" instantiated altera_merlin_demultiplexer "rsp_demux"
Info: rsp_mux: "mm_interconnect_0" instantiated altera_merlin_multiplexer "rsp_mux"
Info: Reusing file /home/handy/skola/KYR/bakalarka/profinet-2015-06-12/profinet/hardware/fpga/profinet/altera_ink_switch/qsys_profinet_system/synthesis/submodules/altera_merlin_arbitrator.sv
Info: rsp_mux_001: "mm_interconnect_0" instantiated altera_merlin_multiplexer "rsp_mux_001"
Info: Reusing file /home/handy/skola/KYR/bakalarka/profinet-2015-06-12/profinet/hardware/fpga/profinet/altera_ink_switch/qsys_profinet_system/synthesis/submodules/altera_merlin_arbitrator.sv
Info: rsp_mux_002: "mm_interconnect_0" instantiated altera_merlin_multiplexer "rsp_mux_002"
Info: Reusing file /home/handy/skola/KYR/bakalarka/profinet-2015-06-12/profinet/hardware/fpga/profinet/altera_ink_switch/qsys_profinet_system/synthesis/submodules/altera_merlin_arbitrator.sv
Info: mutex: "fieldbus_utility" instantiated softing_mutex "mutex"
Info: pio_from_appl: "fieldbus_utility" instantiated softing_pio "pio_from_appl"
Info: dma_controller: "fieldbus_utility" instantiated softing_dma_controller "dma_controller"
Info: dpram: Starting RTL generation for module 'qsys_profinet_system_rte_subsystem_fieldbus_utility_dpram'
Info: dpram:   Generation command is [exec /opt/Quartus-14.1/quartus/linux64/perl/bin/perl -I /opt/Quartus-14.1/quartus/linux64/perl/lib -I /opt/Quartus-14.1/quartus/sopc_builder/bin/europa -I /opt/Quartus-14.1/quartus/sopc_builder/bin/perl_lib -I /opt/Quartus-14.1/quartus/sopc_builder/bin -I /opt/Quartus-14.1/quartus/../ip/altera/sopc_builder_ip/common -I /opt/Quartus-14.1/quartus/../ip/altera/sopc_builder_ip/altera_avalon_onchip_memory2 -- /opt/Quartus-14.1/quartus/../ip/altera/sopc_builder_ip/altera_avalon_onchip_memory2/generate_rtl.pl --name=qsys_profinet_system_rte_subsystem_fieldbus_utility_dpram --dir=/tmp/alt6923_5550029592242065613.dir/0106_dpram_gen/ --quartus_dir=/opt/Quartus-14.1/quartus --verilog --config=/tmp/alt6923_5550029592242065613.dir/0106_dpram_gen//qsys_profinet_system_rte_subsystem_fieldbus_utility_dpram_component_configuration.pl  --do_build_sim=0  ]
Info: dpram: Done RTL generation for module 'qsys_profinet_system_rte_subsystem_fieldbus_utility_dpram'
Info: dpram: "fieldbus_utility" instantiated altera_avalon_onchip_memory2 "dpram"
Info: router: "mm_interconnect_0" instantiated altera_merlin_router "router"
Info: router_002: "mm_interconnect_0" instantiated altera_merlin_router "router_002"
Info: router_003: "mm_interconnect_0" instantiated altera_merlin_router "router_003"
Info: router_004: "mm_interconnect_0" instantiated altera_merlin_router "router_004"
Info: router_005: "mm_interconnect_0" instantiated altera_merlin_router "router_005"
Info: router_008: "mm_interconnect_0" instantiated altera_merlin_router "router_008"
Info: router_009: "mm_interconnect_0" instantiated altera_merlin_router "router_009"
Info: router_010: "mm_interconnect_0" instantiated altera_merlin_router "router_010"
Info: router_011: "mm_interconnect_0" instantiated altera_merlin_router "router_011"
Info: router_012: "mm_interconnect_0" instantiated altera_merlin_router "router_012"
Info: router_013: "mm_interconnect_0" instantiated altera_merlin_router "router_013"
Info: router_014: "mm_interconnect_0" instantiated altera_merlin_router "router_014"
Info: router_015: "mm_interconnect_0" instantiated altera_merlin_router "router_015"
Info: router_017: "mm_interconnect_0" instantiated altera_merlin_router "router_017"
Info: router_019: "mm_interconnect_0" instantiated altera_merlin_router "router_019"
Info: router_022: "mm_interconnect_0" instantiated altera_merlin_router "router_022"
Info: router_023: "mm_interconnect_0" instantiated altera_merlin_router "router_023"
Info: router_026: "mm_interconnect_0" instantiated altera_merlin_router "router_026"
Info: router_034: "mm_interconnect_0" instantiated altera_merlin_router "router_034"
Info: router_035: "mm_interconnect_0" instantiated altera_merlin_router "router_035"
Info: router_036: "mm_interconnect_0" instantiated altera_merlin_router "router_036"
Info: cmd_demux: "mm_interconnect_0" instantiated altera_merlin_demultiplexer "cmd_demux"
Info: cmd_demux_002: "mm_interconnect_0" instantiated altera_merlin_demultiplexer "cmd_demux_002"
Info: cmd_demux_004: "mm_interconnect_0" instantiated altera_merlin_demultiplexer "cmd_demux_004"
Info: cmd_demux_008: "mm_interconnect_0" instantiated altera_merlin_demultiplexer "cmd_demux_008"
Info: cmd_demux_009: "mm_interconnect_0" instantiated altera_merlin_demultiplexer "cmd_demux_009"
Info: cmd_demux_010: "mm_interconnect_0" instantiated altera_merlin_demultiplexer "cmd_demux_010"
Info: cmd_demux_011: "mm_interconnect_0" instantiated altera_merlin_demultiplexer "cmd_demux_011"
Info: cmd_demux_012: "mm_interconnect_0" instantiated altera_merlin_demultiplexer "cmd_demux_012"
Info: cmd_mux: "mm_interconnect_0" instantiated altera_merlin_multiplexer "cmd_mux"
Info: Reusing file /home/handy/skola/KYR/bakalarka/profinet-2015-06-12/profinet/hardware/fpga/profinet/altera_ink_switch/qsys_profinet_system/synthesis/submodules/altera_merlin_arbitrator.sv
Info: cmd_mux_001: "mm_interconnect_0" instantiated altera_merlin_multiplexer "cmd_mux_001"
Info: Reusing file /home/handy/skola/KYR/bakalarka/profinet-2015-06-12/profinet/hardware/fpga/profinet/altera_ink_switch/qsys_profinet_system/synthesis/submodules/altera_merlin_arbitrator.sv
Info: cmd_mux_002: "mm_interconnect_0" instantiated altera_merlin_multiplexer "cmd_mux_002"
Info: Reusing file /home/handy/skola/KYR/bakalarka/profinet-2015-06-12/profinet/hardware/fpga/profinet/altera_ink_switch/qsys_profinet_system/synthesis/submodules/altera_merlin_arbitrator.sv
Info: cmd_mux_004: "mm_interconnect_0" instantiated altera_merlin_multiplexer "cmd_mux_004"
Info: Reusing file /home/handy/skola/KYR/bakalarka/profinet-2015-06-12/profinet/hardware/fpga/profinet/altera_ink_switch/qsys_profinet_system/synthesis/submodules/altera_merlin_arbitrator.sv
Info: cmd_mux_010: "mm_interconnect_0" instantiated altera_merlin_multiplexer "cmd_mux_010"
Info: Reusing file /home/handy/skola/KYR/bakalarka/profinet-2015-06-12/profinet/hardware/fpga/profinet/altera_ink_switch/qsys_profinet_system/synthesis/submodules/altera_merlin_arbitrator.sv
Info: cmd_mux_021: "mm_interconnect_0" instantiated altera_merlin_multiplexer "cmd_mux_021"
Info: Reusing file /home/handy/skola/KYR/bakalarka/profinet-2015-06-12/profinet/hardware/fpga/profinet/altera_ink_switch/qsys_profinet_system/synthesis/submodules/altera_merlin_arbitrator.sv
Info: cmd_mux_022: "mm_interconnect_0" instantiated altera_merlin_multiplexer "cmd_mux_022"
Info: Reusing file /home/handy/skola/KYR/bakalarka/profinet-2015-06-12/profinet/hardware/fpga/profinet/altera_ink_switch/qsys_profinet_system/synthesis/submodules/altera_merlin_arbitrator.sv
Info: rsp_demux: "mm_interconnect_0" instantiated altera_merlin_demultiplexer "rsp_demux"
Info: rsp_demux_001: "mm_interconnect_0" instantiated altera_merlin_demultiplexer "rsp_demux_001"
Info: rsp_demux_002: "mm_interconnect_0" instantiated altera_merlin_demultiplexer "rsp_demux_002"
Info: rsp_demux_004: "mm_interconnect_0" instantiated altera_merlin_demultiplexer "rsp_demux_004"
Info: rsp_demux_005: "mm_interconnect_0" instantiated altera_merlin_demultiplexer "rsp_demux_005"
Info: rsp_demux_009: "mm_interconnect_0" instantiated altera_merlin_demultiplexer "rsp_demux_009"
Info: rsp_demux_010: "mm_interconnect_0" instantiated altera_merlin_demultiplexer "rsp_demux_010"
Info: rsp_demux_021: "mm_interconnect_0" instantiated altera_merlin_demultiplexer "rsp_demux_021"
Info: rsp_mux: "mm_interconnect_0" instantiated altera_merlin_multiplexer "rsp_mux"
Info: Reusing file /home/handy/skola/KYR/bakalarka/profinet-2015-06-12/profinet/hardware/fpga/profinet/altera_ink_switch/qsys_profinet_system/synthesis/submodules/altera_merlin_arbitrator.sv
Info: rsp_mux_002: "mm_interconnect_0" instantiated altera_merlin_multiplexer "rsp_mux_002"
Info: Reusing file /home/handy/skola/KYR/bakalarka/profinet-2015-06-12/profinet/hardware/fpga/profinet/altera_ink_switch/qsys_profinet_system/synthesis/submodules/altera_merlin_arbitrator.sv
Info: rsp_mux_004: "mm_interconnect_0" instantiated altera_merlin_multiplexer "rsp_mux_004"
Info: Reusing file /home/handy/skola/KYR/bakalarka/profinet-2015-06-12/profinet/hardware/fpga/profinet/altera_ink_switch/qsys_profinet_system/synthesis/submodules/altera_merlin_arbitrator.sv
Info: rsp_mux_008: "mm_interconnect_0" instantiated altera_merlin_multiplexer "rsp_mux_008"
Info: Reusing file /home/handy/skola/KYR/bakalarka/profinet-2015-06-12/profinet/hardware/fpga/profinet/altera_ink_switch/qsys_profinet_system/synthesis/submodules/altera_merlin_arbitrator.sv
Info: rsp_mux_009: "mm_interconnect_0" instantiated altera_merlin_multiplexer "rsp_mux_009"
Info: Reusing file /home/handy/skola/KYR/bakalarka/profinet-2015-06-12/profinet/hardware/fpga/profinet/altera_ink_switch/qsys_profinet_system/synthesis/submodules/altera_merlin_arbitrator.sv
Info: rsp_mux_011: "mm_interconnect_0" instantiated altera_merlin_multiplexer "rsp_mux_011"
Info: Reusing file /home/handy/skola/KYR/bakalarka/profinet-2015-06-12/profinet/hardware/fpga/profinet/altera_ink_switch/qsys_profinet_system/synthesis/submodules/altera_merlin_arbitrator.sv
Info: rsp_mux_012: "mm_interconnect_0" instantiated altera_merlin_multiplexer "rsp_mux_012"
Info: Reusing file /home/handy/skola/KYR/bakalarka/profinet-2015-06-12/profinet/hardware/fpga/profinet/altera_ink_switch/qsys_profinet_system/synthesis/submodules/altera_merlin_arbitrator.sv
Info: router: "mm_interconnect_0" instantiated altera_merlin_router "router"
Info: router_001: "mm_interconnect_0" instantiated altera_merlin_router "router_001"
Info: cmd_demux: "mm_interconnect_0" instantiated altera_merlin_demultiplexer "cmd_demux"
Info: cmd_mux: "mm_interconnect_0" instantiated altera_merlin_multiplexer "cmd_mux"
Info: Reusing file /home/handy/skola/KYR/bakalarka/profinet-2015-06-12/profinet/hardware/fpga/profinet/altera_ink_switch/qsys_profinet_system/synthesis/submodules/altera_merlin_arbitrator.sv
Info: rsp_demux: "mm_interconnect_0" instantiated altera_merlin_demultiplexer "rsp_demux"
Info: rsp_mux: "mm_interconnect_0" instantiated altera_merlin_multiplexer "rsp_mux"
Info: Reusing file /home/handy/skola/KYR/bakalarka/profinet-2015-06-12/profinet/hardware/fpga/profinet/altera_ink_switch/qsys_profinet_system/synthesis/submodules/altera_merlin_arbitrator.sv
Info: router: "mm_interconnect_1" instantiated altera_merlin_router "router"
Info: qsys_profinet_system: Done "qsys_profinet_system" with 179 modules, 237 files
Info: ip-generate succeeded.
Info: Finished: Create HDL design files for synthesis
