-- Contents are randomly generated during RTL generation.
WIDTH=32;
DEPTH=256;

ADDRESS_RADIX=HEX;
DATA_RADIX=HEX;

CONTENT BEGIN

00 : 19e65b5f;
01 : 9c3b7bab;
02 : 22bc8d7d;
03 : 03aa0e5f;
04 : 7d35f4ff;
05 : e5208a6e;
06 : 44fdd477;
07 : 74a81f1c;
08 : 6936d4f1;
09 : 375fc2a2;
0a : 22a07f26;
0b : 701c1a4d;
0c : af4d2557;
0d : bac85a82;
0e : 29cff602;
0f : 3e17ccab;
10 : 98b6a18b;
11 : af30f039;
12 : 79aa79a1;
13 : 0c6c6328;
14 : f344e139;
15 : d1a23597;
16 : aff9d82b;
17 : 0ab8d355;
18 : 0fbf06a8;
19 : ceb95c63;
1a : 592f5478;
1b : 34acb1a3;
1c : 4f3fbe92;
1d : 88e863bc;
1e : b50bf58a;
1f : b5843c0b;
20 : 1949e308;
21 : 8e362c2d;
22 : 38096a2e;
23 : 2590b613;
24 : ed4f1bc7;
25 : 1a9dde4b;
26 : 020e5d70;
27 : 7ba782ee;
28 : 5c50a842;
29 : d4ec5b1a;
2a : 057d94d1;
2b : dbd94e93;
2c : 2df44dca;
2d : b408a804;
2e : d9eebfab;
2f : 9a2625ef;
30 : 890d9a69;
31 : 4ed6c078;
32 : 975f5842;
33 : d9678916;
34 : 0bab32d2;
35 : 2bc29415;
36 : 1184a161;
37 : 2c7798e7;
38 : e91740c8;
39 : e35b48d1;
3a : 622b21fb;
3b : e397793d;
3c : 290cf107;
3d : 49af21ac;
3e : 658940ca;
3f : f141502f;
40 : e20fc11c;
41 : bac0182e;
42 : 462d22a4;
43 : 7af0c133;
44 : 426fabd0;
45 : f932436d;
46 : 1e7bb164;
47 : a3da743c;
48 : 04cb28f8;
49 : 44a491e9;
4a : 01d01813;
4b : 5377cacc;
4c : 8881ed2c;
4d : 211920b7;
4e : aba37912;
4f : 675a2662;
50 : 013a8a6c;
51 : 43bf84d0;
52 : 664255e1;
53 : 1c65eeba;
54 : 3f75ffe1;
55 : 70308174;
56 : c582652e;
57 : 677bec19;
58 : 11c8d31c;
59 : 8860f1c7;
5a : 156959c6;
5b : 21a40051;
5c : c4bb9d10;
5d : c4929ac5;
5e : 12f38649;
5f : ed7e4f86;
60 : 864863d1;
61 : 89a9d795;
62 : 7ac0220c;
63 : 633c7064;
64 : 40cb08f1;
65 : f0c35f7a;
66 : 2a5f3bdb;
67 : a713a1e7;
68 : d5e272b6;
69 : bad2c556;
6a : fd3d9459;
6b : 5527cf67;
6c : 95b92db7;
6d : 458a7949;
6e : a7152dfa;
6f : f849dd47;
70 : 9252c934;
71 : 8bfff345;
72 : 4e431d80;
73 : b359488e;
74 : 5f52ee08;
75 : 98756db8;
76 : 6386634d;
77 : 9f99c691;
78 : e1c31956;
79 : f7396d29;
7a : 564934e0;
7b : 2d099bb3;
7c : b119ee59;
7d : 3d8600b2;
7e : 8bc829af;
7f : f85308ea;
80 : fe722da9;
81 : 7eac949a;
82 : dc1d47af;
83 : a63f312a;
84 : 139fa1fd;
85 : 96c2a006;
86 : 1707634b;
87 : f951f3ce;
88 : 30c16fe1;
89 : fb0ed148;
8a : d1313194;
8b : 757ccab5;
8c : f584858b;
8d : a7ab8295;
8e : ea01d817;
8f : b9f579f3;
90 : fc72bb27;
91 : c25bad71;
92 : 1e6dd124;
93 : 4d0d3010;
94 : 575b5811;
95 : fe2d6449;
96 : 9bff5642;
97 : 162de6ca;
98 : 4266ab6d;
99 : c0f9cbd3;
9a : 65940583;
9b : 45057863;
9c : 0480e6b7;
9d : bf8663a6;
9e : fd59452f;
9f : e0c46edf;
a0 : 346dba11;
a1 : b6afb9ad;
a2 : 14338d22;
a3 : faf1fc51;
a4 : 9d051a07;
a5 : 6e4c0563;
a6 : 69288728;
a7 : df9eefee;
a8 : dc1aa1f8;
a9 : 593d74d4;
aa : b729ce62;
ab : fea51bd4;
ac : 532104a6;
ad : 0cb9b26d;
ae : e4bffb6d;
af : 32956b7d;
b0 : 8c50b42e;
b1 : 991b5eb1;
b2 : cbd2e986;
b3 : 2f2812e3;
b4 : 3503711a;
b5 : 630a2ec5;
b6 : d4f88fe6;
b7 : 7ae62eb8;
b8 : fffc88d1;
b9 : 9b8a8daa;
ba : 5ab46707;
bb : d41de9d7;
bc : 044ab987;
bd : 1d589781;
be : 91f6f6c6;
bf : 369c91e4;
c0 : 1b2a58a1;
c1 : 967e655a;
c2 : eab0adc7;
c3 : 7901b666;
c4 : 4b50204b;
c5 : eae953f0;
c6 : f0b60014;
c7 : 729329a4;
c8 : cb16b3bf;
c9 : f27101d1;
ca : 9b7eaa02;
cb : 70904da7;
cc : f609f828;
cd : 88d19bd1;
ce : daeb4d47;
cf : 1f8c220f;
d0 : 0dcb53a4;
d1 : 90e79a35;
d2 : c1f34465;
d3 : 6b49eda0;
d4 : 456b1265;
d5 : 6bf00050;
d6 : 8f97b6a9;
d7 : 8617f414;
d8 : 74ec0efa;
d9 : 048d4f7a;
da : 8a4fe3b7;
db : 05bd3aad;
dc : 7c6f41bf;
dd : d3d64cba;
de : ed4fb17c;
df : da0cb752;
e0 : 99691e0c;
e1 : 0f11f789;
e2 : 92057fec;
e3 : 5f3ded61;
e4 : 3db0e667;
e5 : a42c71c9;
e6 : ff0d3c9f;
e7 : a4330169;
e8 : 27cff974;
e9 : 844ab554;
ea : ab7ae773;
eb : 04b9aedf;
ec : 30e939d3;
ed : 623042f3;
ee : b41ba84d;
ef : f9619176;
f0 : d66b17a6;
f1 : 0b2900c1;
f2 : c0551842;
f3 : aebca4e1;
f4 : a12d9e6b;
f5 : cb24c855;
f6 : 15ad2f70;
f7 : a359174d;
f8 : efdbab14;
f9 : 2c75fe16;
fa : 026c3959;
fb : 2276eace;
fc : 59778a91;
fd : 53721442;
fe : 80c309b2;
ff : 7e2262ae;

END;
